{
    "cordova-plugin-mfp": {
        "source": {
            "type": "local",
            "path": "/Applications/IBM/MobileFirst-CLI/mobilefirst-cli/node_modules/cordovacmd/cordova/plugins/cordova-plugin-mfp"
        },
        "is_top_level": true,
        "variables": {}
    },
    "org.apache.cordova.camera": {
        "source": {
            "type": "local",
            "path": "/Applications/IBM/MobileFirst-CLI/mobilefirst-cli/node_modules/cordovacmd/cordova/plugins/cordova-plugin-camera"
        },
        "is_top_level": true,
        "variables": {}
    },
    "org.apache.cordova.vibration": {
        "source": {
            "type": "local",
            "path": "/Applications/IBM/MobileFirst-CLI/mobilefirst-cli/node_modules/cordovacmd/cordova/plugins/cordova-plugin-vibration"
        },
        "is_top_level": true,
        "variables": {}
    },
    "com.ionic.keyboard": {
        "source": {
            "type": "registry",
            "id": "com.ionic.keyboard"
        },
        "is_top_level": true,
        "variables": {}
    },
    "org.apache.cordova.device": {
        "source": {
            "type": "registry",
            "id": "org.apache.cordova.device"
        },
        "is_top_level": false,
        "variables": {}
    },
    "org.apache.cordova.dialogs": {
        "source": {
            "type": "registry",
            "id": "org.apache.cordova.dialogs"
        },
        "is_top_level": false,
        "variables": {}
    },
    "org.apache.cordova.geolocation": {
        "source": {
            "type": "registry",
            "id": "org.apache.cordova.geolocation"
        },
        "is_top_level": false,
        "variables": {}
    },
    "org.apache.cordova.globalization": {
        "source": {
            "type": "registry",
            "id": "org.apache.cordova.globalization"
        },
        "is_top_level": false,
        "variables": {}
    },
    "org.apache.cordova.inappbrowser": {
        "source": {
            "type": "registry",
            "id": "org.apache.cordova.inappbrowser"
        },
        "is_top_level": false,
        "variables": {}
    },
    "org.apache.cordova.network-information": {
        "source": {
            "type": "registry",
            "id": "org.apache.cordova.network-information"
        },
        "is_top_level": false,
        "variables": {}
    },
    "com.phonegap.plugins.barcodescanner": {
        "source": {
            "type": "registry",
            "id": "com.phonegap.plugins.barcodescanner"
        },
        "is_top_level": true,
        "variables": {}
    },
    "phonegap-plugin-barcodescanner": {
        "source": {
            "type": "registry",
            "id": "phonegap-plugin-barcodescanner"
        },
        "is_top_level": true,
        "variables": {}
    }
}